Proyecto_memoria_VHDL/ROM_Proyecto/simulation/qsim/ROM_P.msim.vcd
$comment
	File created using the following command:
		vcd file ROM_P.msim.vcd -direction
$end
$date
	Thu Oct 27 10:39:30 2022
$end
$version
	ModelSim Version 10.1d
$end
$timescale
	1ps
$end
$scope module ROM_P_vlg_vec_tst $end
$var reg 4 ! address [3:0] $end
$var reg 1 " clock $end
$var wire 1 # data_out [7] $end
$var wire 1 $ data_out [6] $end
$var wire 1 % data_out [5] $end
$var wire 1 & data_out [4] $end
$var wire 1 ' data_out [3] $end
$var wire 1 ( data_out [2] $end
$var wire 1 ) data_out [1] $end
$var wire 1 * data_out [0] $end
$var wire 1 + sampler $end
$scope module i1 $end
$var wire 1 , gnd $end
$var wire 1 - vcc $end
$var wire 1 . unknown $end
$var tri1 1 / devclrn $end
$var tri1 1 0 devpor $end
$var tri1 1 1 devoe $end
$var wire 1 2 data_out[0]~output_o $end
$var wire 1 3 data_out[1]~output_o $end
$var wire 1 4 data_out[2]~output_o $end
$var wire 1 5 data_out[3]~output_o $end
$var wire 1 6 data_out[4]~output_o $end
$var wire 1 7 data_out[5]~output_o $end
$var wire 1 8 data_out[6]~output_o $end
$var wire 1 9 data_out[7]~output_o $end
$var wire 1 : clock~input_o $end
$var wire 1 ; clock~inputclkctrl_outclk $end
$var wire 1 < address[0]~input_o $end
$var wire 1 = address[2]~input_o $end
$var wire 1 > address[1]~input_o $end
$var wire 1 ? address[3]~input_o $end
$var wire 1 @ Mux6~0_combout $end
$var wire 1 A data_out[1]~reg0_q $end
$var wire 1 B Mux5~0_combout $end
$var wire 1 C data_out[2]~reg0_q $end
$var wire 1 D Mux4~0_combout $end
$var wire 1 E data_out[3]~reg0_q $end
$var wire 1 F Mux3~0_combout $end
$var wire 1 G data_out[4]~reg0_q $end
$var wire 1 H Mux2~0_combout $end
$var wire 1 I data_out[5]~reg0_q $end
$var wire 1 J Mux1~0_combout $end
$var wire 1 K data_out[6]~reg0_q $end
$var wire 1 L Mux5~1_combout $end
$var wire 1 M data_out[7]~reg0_q $end
$upscope $end
$upscope $end
$enddefinitions $end
#0
$dumpvars
b0 !
0"
0*
0)
0(
0'
0&
0%
0$
0#
x+
0,
1-
x.
1/
10
11
02
03
04
05
06
07
08
09
0:
0;
0<
0=
0>
0?
1@
0A
1B
0C
0D
0E
0F
0G
0H
0I
0J
0K
1L
0M
$end
#25000
1"
1:
1;
0+
1M
1C
1A
19
14
13
1#
1(
1)
#50000
b1 !
0"
1<
0:
0;
1+
1H
1D
0B
#75000
1"
1:
1;
0+
1I
1E
0C
17
15
04
1%
1'
0(
#100000
b11 !
b10 !
0"
0<
1>
0:
0;
1+
0H
1F
0D
1B
#125000
1"
1:
1;
0+
0I
1G
0E
1C
07
16
05
14
0%
1&
0'
1(
#150000
b11 !
0"
1<
0:
0;
1+
1J
1H
0F
0B
0@
#175000
1"
1:
1;
0+
1K
1I
0G
0C
0A
18
17
06
04
03
1$
1%
0&
0(
0)
#200000
b111 !
b101 !
b100 !
0"
0<
0>
1=
0:
0;
1+
0J
0L
#225000
1"
1:
1;
0+
0M
0K
09
08
0#
0$
#250000
b101 !
0"
1<
0:
0;
1+
0H
#275000
1"
1:
1;
0+
0I
07
0%
#300000
b111 !
b110 !
0"
0<
1>
0:
0;
1+
#325000
1"
1:
1;
0+
#350000
b111 !
0"
1<
0:
0;
1+
#375000
1"
1:
1;
0+
#400000
b1111 !
b1011 !
b1001 !
b1000 !
0"
0<
0>
0=
1?
0:
0;
1+
#425000
1"
1:
1;
0+
#450000
b1001 !
0"
1<
0:
0;
1+
#475000
1"
1:
1;
0+
#500000
b1011 !
b1010 !
0"
0<
1>
0:
0;
1+
#525000
1"
1:
1;
0+
#550000
b1011 !
0"
1<
0:
0;
1+
#575000
1"
1:
1;
0+
#600000
b1111 !
b1101 !
b1100 !
0"
0<
0>
1=
0:
0;
1+
#625000
1"
1:
1;
0+
#650000
b1101 !
0"
1<
0:
0;
1+
#675000
1"
1:
1;
0+
#700000
b1111 !
b1110 !
0"
0<
1>
0:
0;
1+
#725000
1"
1:
1;
0+
#750000
b1111 !
0"
1<
0:
0;
1+
#775000
1"
1:
1;
0+
#800000
b111 !
b11 !
b1 !
b0 !
0"
0<
0>
0=
0?
0:
0;
1+
1B
1@
1L
#825000
1"
1:
1;
0+
1M
1C
1A
19
14
13
1#
1(
1)
#850000
b1 !
0"
1<
0:
0;
1+
1H
1D
0B
#875000
1"
1:
1;
0+
1I
1E
0C
17
15
04
1%
1'
0(
#900000
b11 !
b10 !
0"
0<
1>
0:
0;
1+
0H
1F
0D
1B
#925000
1"
1:
1;
0+
0I
1G
0E
1C
07
16
05
14
0%
1&
0'
1(
#950000
b11 !
0"
1<
0:
0;
1+
1J
1H
0F
0B
0@
#975000
1"
1:
1;
0+
1K
1I
0G
0C
0A
18
17
06
04
03
1$
1%
0&
0(
0)
